-- Merging decision tree log ---
manifest
ADDED from /Users/bclifton/Documents/GitHub/showcase/showcaseDroid/src/main/AndroidManifest.xml:2:1-15:12
INJECTED from /Users/bclifton/Documents/GitHub/showcase/showcaseDroid/src/main/AndroidManifest.xml:2:1-15:12
INJECTED from /Users/bclifton/Documents/GitHub/showcase/showcaseDroid/src/main/AndroidManifest.xml:2:1-15:12
INJECTED from /Users/bclifton/Documents/GitHub/showcase/showcaseDroid/src/main/AndroidManifest.xml:2:1-15:12
MERGED from [androidx.databinding:databinding-adapters:4.2.1] /Users/bclifton/.gradle/caches/transforms-2/files-2.1/21311faf19d12f309ac2659e32a3ce7d/databinding-adapters-4.2.1/AndroidManifest.xml:17:1-22:12
MERGED from [androidx.databinding:databinding-runtime:4.2.1] /Users/bclifton/.gradle/caches/transforms-2/files-2.1/61af93d91e3dc631a5c62e691c8f3362/databinding-runtime-4.2.1/AndroidManifest.xml:17:1-22:12
MERGED from [:shared] /Users/bclifton/Documents/GitHub/showcase/shared/build/intermediates/merged_manifest/debug/AndroidManifest.xml:2:1-9:12
MERGED from [androidx.navigation:navigation-ui-ktx:2.3.3] /Users/bclifton/.gradle/caches/transforms-2/files-2.1/eab8b203c8408eef88a4c6e4f3bbfae7/navigation-ui-ktx-2.3.3/AndroidManifest.xml:17:1-24:12
MERGED from [androidx.navigation:navigation-ui:2.3.3] /Users/bclifton/.gradle/caches/transforms-2/files-2.1/e0d17e851b635e3fb9363dccc53a1571/navigation-ui-2.3.3/AndroidManifest.xml:17:1-24:12
MERGED from [com.google.android.material:material:1.3.0] /Users/bclifton/.gradle/caches/transforms-2/files-2.1/c19913a41121602073e531fdc14d2173/material-1.3.0/AndroidManifest.xml:17:1-24:12
MERGED from [androidx.constraintlayout:constraintlayout:2.0.4] /Users/bclifton/.gradle/caches/transforms-2/files-2.1/da55807784bc4f113ebdc44543ca6a66/constraintlayout-2.0.4/AndroidManifest.xml:2:1-11:12
MERGED from [androidx.appcompat:appcompat:1.2.0] /Users/bclifton/.gradle/caches/transforms-2/files-2.1/4f352150ebb7896ba4833cb16ba7a6f6/appcompat-1.2.0/AndroidManifest.xml:17:1-24:12
MERGED from [androidx.lifecycle:lifecycle-livedata-ktx:2.2.0] /Users/bclifton/.gradle/caches/transforms-2/files-2.1/ac44153580a3b97b032ede7c439a007e/lifecycle-livedata-ktx-2.2.0/AndroidManifest.xml:17:1-24:12
MERGED from [androidx.navigation:navigation-dynamic-features-fragment:2.3.3] /Users/bclifton/.gradle/caches/transforms-2/files-2.1/3b42d80bf0cf380e7d76cf05f330e1d7/navigation-dynamic-features-fragment-2.3.3/AndroidManifest.xml:17:1-24:12
MERGED from [androidx.navigation:navigation-fragment-ktx:2.3.3] /Users/bclifton/.gradle/caches/transforms-2/files-2.1/13bdeeae5ab698871bfc76267c060b41/navigation-fragment-ktx-2.3.3/AndroidManifest.xml:17:1-24:12
MERGED from [androidx.fragment:fragment-ktx:1.2.5] /Users/bclifton/.gradle/caches/transforms-2/files-2.1/dd93101153ffffb123823d9bfef32637/fragment-ktx-1.2.5/AndroidManifest.xml:17:1-24:12
MERGED from [androidx.navigation:navigation-dynamic-features-runtime:2.3.3] /Users/bclifton/.gradle/caches/transforms-2/files-2.1/a0e73c125e805fc2bd88c54c6d263bd2/navigation-dynamic-features-runtime-2.3.3/AndroidManifest.xml:17:1-24:12
MERGED from [androidx.navigation:navigation-runtime-ktx:2.3.3] /Users/bclifton/.gradle/caches/transforms-2/files-2.1/08b09f2c8d8fba6aea46bfa944c594e2/navigation-runtime-ktx-2.3.3/AndroidManifest.xml:17:1-24:12
MERGED from [androidx.activity:activity-ktx:1.1.0] /Users/bclifton/.gradle/caches/transforms-2/files-2.1/049bf8c558277a31c616cbe432f5703e/activity-ktx-1.1.0/AndroidManifest.xml:17:1-24:12
MERGED from [androidx.lifecycle:lifecycle-viewmodel-ktx:2.2.0] /Users/bclifton/.gradle/caches/transforms-2/files-2.1/9e57a712b8039ad672ec8da20c32ffe6/lifecycle-viewmodel-ktx-2.2.0/AndroidManifest.xml:17:1-24:12
MERGED from [androidx.lifecycle:lifecycle-runtime-ktx:2.2.0] /Users/bclifton/.gradle/caches/transforms-2/files-2.1/73e7dc6703469f3a8565e10237f87c57/lifecycle-runtime-ktx-2.2.0/AndroidManifest.xml:17:1-24:12
MERGED from [androidx.lifecycle:lifecycle-livedata-core-ktx:2.2.0] /Users/bclifton/.gradle/caches/transforms-2/files-2.1/7d72a236a83331ff20033b8bb91c97d2/lifecycle-livedata-core-ktx-2.2.0/AndroidManifest.xml:17:1-24:12
MERGED from [androidx.navigation:navigation-common-ktx:2.3.3] /Users/bclifton/.gradle/caches/transforms-2/files-2.1/9164c1b5dcffa555a9ce7ad566ed2356/navigation-common-ktx-2.3.3/AndroidManifest.xml:17:1-24:12
MERGED from [androidx.core:core-ktx:1.1.0] /Users/bclifton/.gradle/caches/transforms-2/files-2.1/fb843b5c66a3898432769951745a7aff/core-ktx-1.1.0/AndroidManifest.xml:2:1-9:12
MERGED from [androidx.legacy:legacy-support-v4:1.0.0] /Users/bclifton/.gradle/caches/transforms-2/files-2.1/42c74b1ff97f11a7735fccb14b45b81f/legacy-support-v4-1.0.0/AndroidManifest.xml:17:1-22:12
MERGED from [androidx.navigation:navigation-fragment:2.3.3] /Users/bclifton/.gradle/caches/transforms-2/files-2.1/734ba2c1e21593226e635ea819a6f669/navigation-fragment-2.3.3/AndroidManifest.xml:17:1-24:12
MERGED from [androidx.viewpager2:viewpager2:1.0.0] /Users/bclifton/.gradle/caches/transforms-2/files-2.1/735d1501aef76e117814f39ae447e35d/viewpager2-1.0.0/AndroidManifest.xml:17:1-24:12
MERGED from [androidx.fragment:fragment:1.2.5] /Users/bclifton/.gradle/caches/transforms-2/files-2.1/3d50f53ef9b1c8eca4d739479c1e4736/fragment-1.2.5/AndroidManifest.xml:17:1-24:12
MERGED from [androidx.recyclerview:recyclerview:1.1.0] /Users/bclifton/.gradle/caches/transforms-2/files-2.1/0c564c8ac25c562da9447a32f41671f1/recyclerview-1.1.0/AndroidManifest.xml:17:1-24:12
MERGED from [androidx.databinding:viewbinding:4.2.1] /Users/bclifton/.gradle/caches/transforms-2/files-2.1/fea3c853f994ff3486f57983e56b7dc8/viewbinding-4.2.1/AndroidManifest.xml:17:1-22:12
MERGED from [androidx.legacy:legacy-support-core-ui:1.0.0] /Users/bclifton/.gradle/caches/transforms-2/files-2.1/ae157a1690813e6fbdbf8a262a85d911/legacy-support-core-ui-1.0.0/AndroidManifest.xml:17:1-22:12
MERGED from [androidx.coordinatorlayout:coordinatorlayout:1.1.0] /Users/bclifton/.gradle/caches/transforms-2/files-2.1/216af7355159bc43e41d85ef854899e1/coordinatorlayout-1.1.0/AndroidManifest.xml:17:1-24:12
MERGED from [androidx.dynamicanimation:dynamicanimation:1.0.0] /Users/bclifton/.gradle/caches/transforms-2/files-2.1/3877608a4e5b74b2b73e7b3dcf733373/dynamicanimation-1.0.0/AndroidManifest.xml:17:1-22:12
MERGED from [androidx.appcompat:appcompat-resources:1.2.0] /Users/bclifton/.gradle/caches/transforms-2/files-2.1/9ec1710595e71cc78df89ef32738a6b2/appcompat-resources-1.2.0/AndroidManifest.xml:17:1-24:12
MERGED from [androidx.vectordrawable:vectordrawable-animated:1.1.0] /Users/bclifton/.gradle/caches/transforms-2/files-2.1/9345872765d32e03a6ff5317f27e18c5/vectordrawable-animated-1.1.0/AndroidManifest.xml:17:1-24:12
MERGED from [androidx.vectordrawable:vectordrawable:1.1.0] /Users/bclifton/.gradle/caches/transforms-2/files-2.1/c9d454c22800539d56ebff29df6ee441/vectordrawable-1.1.0/AndroidManifest.xml:17:1-24:12
MERGED from [androidx.media:media:1.0.0] /Users/bclifton/.gradle/caches/transforms-2/files-2.1/3200c147f0a86d10372f3a59db866af8/media-1.0.0/AndroidManifest.xml:17:1-22:12
MERGED from [androidx.legacy:legacy-support-core-utils:1.0.0] /Users/bclifton/.gradle/caches/transforms-2/files-2.1/56bc4586677b7c064f705183c5f71f25/legacy-support-core-utils-1.0.0/AndroidManifest.xml:17:1-22:12
MERGED from [androidx.viewpager:viewpager:1.0.0] /Users/bclifton/.gradle/caches/transforms-2/files-2.1/c90b8f7a3f0f9b180886809a2de767c6/viewpager-1.0.0/AndroidManifest.xml:17:1-22:12
MERGED from [androidx.loader:loader:1.0.0] /Users/bclifton/.gradle/caches/transforms-2/files-2.1/080bd4d3c11bdb339bc1eeb7b193b71d/loader-1.0.0/AndroidManifest.xml:17:1-22:12
MERGED from [androidx.navigation:navigation-runtime:2.3.3] /Users/bclifton/.gradle/caches/transforms-2/files-2.1/30a8f1cdda1b53a41227523ea9c2541d/navigation-runtime-2.3.3/AndroidManifest.xml:17:1-24:12
MERGED from [androidx.activity:activity:1.1.0] /Users/bclifton/.gradle/caches/transforms-2/files-2.1/6292595c5293c63eff4148f2410a40de/activity-1.1.0/AndroidManifest.xml:17:1-24:12
MERGED from [androidx.drawerlayout:drawerlayout:1.1.1] /Users/bclifton/.gradle/caches/transforms-2/files-2.1/ab64a95fecd4cc13168924ab2a2d6423/drawerlayout-1.1.1/AndroidManifest.xml:17:1-24:12
MERGED from [androidx.transition:transition:1.3.0] /Users/bclifton/.gradle/caches/transforms-2/files-2.1/24fe618556fb69fea03b5fdfc2f24754/transition-1.3.0/AndroidManifest.xml:17:1-24:12
MERGED from [androidx.slidingpanelayout:slidingpanelayout:1.0.0] /Users/bclifton/.gradle/caches/transforms-2/files-2.1/397601f4e18190de8bd51ebad9445612/slidingpanelayout-1.0.0/AndroidManifest.xml:17:1-22:12
MERGED from [androidx.customview:customview:1.1.0] /Users/bclifton/.gradle/caches/transforms-2/files-2.1/ff512320a83314db5fe820f467a08c93/customview-1.1.0/AndroidManifest.xml:17:1-24:12
MERGED from [androidx.swiperefreshlayout:swiperefreshlayout:1.0.0] /Users/bclifton/.gradle/caches/transforms-2/files-2.1/42feb3c11a8c938a3915d90d7c56728d/swiperefreshlayout-1.0.0/AndroidManifest.xml:17:1-22:12
MERGED from [androidx.asynclayoutinflater:asynclayoutinflater:1.0.0] /Users/bclifton/.gradle/caches/transforms-2/files-2.1/6f6e458a954b59a007d63f9c2c61e677/asynclayoutinflater-1.0.0/AndroidManifest.xml:17:1-22:12
MERGED from [androidx.navigation:navigation-common:2.3.3] /Users/bclifton/.gradle/caches/transforms-2/files-2.1/0c9e0fc1c0c0aab51439cd8a4b334b31/navigation-common-2.3.3/AndroidManifest.xml:17:1-24:12
MERGED from [androidx.core:core:1.3.1] /Users/bclifton/.gradle/caches/transforms-2/files-2.1/8e671558511b6a302162925e3be46af4/core-1.3.1/AndroidManifest.xml:17:1-26:12
MERGED from [androidx.lifecycle:lifecycle-runtime:2.2.0] /Users/bclifton/.gradle/caches/transforms-2/files-2.1/159fc0d5165047d2f6a27a869274ef72/lifecycle-runtime-2.2.0/AndroidManifest.xml:17:1-24:12
MERGED from [androidx.versionedparcelable:versionedparcelable:1.1.0] /Users/bclifton/.gradle/caches/transforms-2/files-2.1/7fe2cf06e736d07e7481bc68004754be/versionedparcelable-1.1.0/AndroidManifest.xml:17:1-27:12
MERGED from [androidx.cardview:cardview:1.0.0] /Users/bclifton/.gradle/caches/transforms-2/files-2.1/5726911d383b8d67b4d57a0279cc1b79/cardview-1.0.0/AndroidManifest.xml:17:1-22:12
MERGED from [androidx.cursoradapter:cursoradapter:1.0.0] /Users/bclifton/.gradle/caches/transforms-2/files-2.1/70a5b50e1fdf86009f7ad30feff01b44/cursoradapter-1.0.0/AndroidManifest.xml:17:1-22:12
MERGED from [androidx.lifecycle:lifecycle-viewmodel-savedstate:2.2.0] /Users/bclifton/.gradle/caches/transforms-2/files-2.1/a3435474446b3195fe9bdd0af1c518d0/lifecycle-viewmodel-savedstate-2.2.0/AndroidManifest.xml:17:1-24:12
MERGED from [androidx.lifecycle:lifecycle-viewmodel:2.2.0] /Users/bclifton/.gradle/caches/transforms-2/files-2.1/68837826c9c363d3d9fb6106baaa9b67/lifecycle-viewmodel-2.2.0/AndroidManifest.xml:17:1-24:12
MERGED from [androidx.documentfile:documentfile:1.0.0] /Users/bclifton/.gradle/caches/transforms-2/files-2.1/e28f33ee7f33cfef67ffa8f4378ae5f9/documentfile-1.0.0/AndroidManifest.xml:17:1-22:12
MERGED from [androidx.localbroadcastmanager:localbroadcastmanager:1.0.0] /Users/bclifton/.gradle/caches/transforms-2/files-2.1/d56c590668dfed54135cdf9740c9ce4a/localbroadcastmanager-1.0.0/AndroidManifest.xml:17:1-22:12
MERGED from [androidx.print:print:1.0.0] /Users/bclifton/.gradle/caches/transforms-2/files-2.1/ddce38c2be796698293f73a9a0bad20f/print-1.0.0/AndroidManifest.xml:17:1-22:12
MERGED from [androidx.interpolator:interpolator:1.0.0] /Users/bclifton/.gradle/caches/transforms-2/files-2.1/361eba0bf6994b3b1c4870c4a829fce8/interpolator-1.0.0/AndroidManifest.xml:17:1-22:12
MERGED from [androidx.lifecycle:lifecycle-livedata:2.2.0] /Users/bclifton/.gradle/caches/transforms-2/files-2.1/7b442bbec916a8474af69a03431241a4/lifecycle-livedata-2.2.0/AndroidManifest.xml:17:1-24:12
MERGED from [androidx.lifecycle:lifecycle-livedata-core:2.2.0] /Users/bclifton/.gradle/caches/transforms-2/files-2.1/0886fcc92e2d3dcc5f0118c261e01cf3/lifecycle-livedata-core-2.2.0/AndroidManifest.xml:17:1-24:12
MERGED from [androidx.arch.core:core-runtime:2.1.0] /Users/bclifton/.gradle/caches/transforms-2/files-2.1/eed275ba049d04ee41740f65e30c1cb6/core-runtime-2.1.0/AndroidManifest.xml:17:1-24:12
MERGED from [androidx.savedstate:savedstate:1.0.0] /Users/bclifton/.gradle/caches/transforms-2/files-2.1/2a1e8487f9d77dcff3f52ad1e35fe0b6/savedstate-1.0.0/AndroidManifest.xml:17:1-24:12
MERGED from [androidx.annotation:annotation-experimental:1.0.0] /Users/bclifton/.gradle/caches/transforms-2/files-2.1/0d90f1690dd3a53522cb7af4dec04317/annotation-experimental-1.0.0/AndroidManifest.xml:17:1-24:12
MERGED from [com.google.android.play:core:1.7.2] /Users/bclifton/.gradle/caches/transforms-2/files-2.1/1c0f27f7a76547521bbbfa51beead110/core-1.7.2/AndroidManifest.xml:2:1-19:12
INJECTED from /Users/bclifton/Documents/GitHub/showcase/showcaseDroid/src/main/AndroidManifest.xml:2:1-15:12
INJECTED from /Users/bclifton/Documents/GitHub/showcase/showcaseDroid/src/main/AndroidManifest.xml:2:1-15:12
INJECTED from /Users/bclifton/Documents/GitHub/showcase/showcaseDroid/src/main/AndroidManifest.xml:2:1-15:12
	package
		ADDED from /Users/bclifton/Documents/GitHub/showcase/showcaseDroid/src/main/AndroidManifest.xml:2:70-116
		INJECTED from /Users/bclifton/Documents/GitHub/showcase/showcaseDroid/src/main/AndroidManifest.xml
		INJECTED from /Users/bclifton/Documents/GitHub/showcase/showcaseDroid/src/main/AndroidManifest.xml
	android:versionName
		INJECTED from /Users/bclifton/Documents/GitHub/showcase/showcaseDroid/src/main/AndroidManifest.xml
		ADDED from /Users/bclifton/Documents/GitHub/showcase/showcaseDroid/src/main/AndroidManifest.xml:2:1-15:12
		INJECTED from /Users/bclifton/Documents/GitHub/showcase/showcaseDroid/src/main/AndroidManifest.xml
	android:versionCode
		INJECTED from /Users/bclifton/Documents/GitHub/showcase/showcaseDroid/src/main/AndroidManifest.xml
		ADDED from /Users/bclifton/Documents/GitHub/showcase/showcaseDroid/src/main/AndroidManifest.xml:2:1-15:12
		INJECTED from /Users/bclifton/Documents/GitHub/showcase/showcaseDroid/src/main/AndroidManifest.xml
	xmlns:android
		ADDED from /Users/bclifton/Documents/GitHub/showcase/showcaseDroid/src/main/AndroidManifest.xml:2:11-69
uses-permission#android.permission.INTERNET
ADDED from /Users/bclifton/Documents/GitHub/showcase/showcaseDroid/src/main/AndroidManifest.xml:3:5-67
	android:name
		ADDED from /Users/bclifton/Documents/GitHub/showcase/showcaseDroid/src/main/AndroidManifest.xml:3:22-64
application
ADDED from /Users/bclifton/Documents/GitHub/showcase/showcaseDroid/src/main/AndroidManifest.xml:4:5-14:19
MERGED from [com.google.android.material:material:1.3.0] /Users/bclifton/.gradle/caches/transforms-2/files-2.1/c19913a41121602073e531fdc14d2173/material-1.3.0/AndroidManifest.xml:22:5-20
MERGED from [com.google.android.material:material:1.3.0] /Users/bclifton/.gradle/caches/transforms-2/files-2.1/c19913a41121602073e531fdc14d2173/material-1.3.0/AndroidManifest.xml:22:5-20
MERGED from [androidx.constraintlayout:constraintlayout:2.0.4] /Users/bclifton/.gradle/caches/transforms-2/files-2.1/da55807784bc4f113ebdc44543ca6a66/constraintlayout-2.0.4/AndroidManifest.xml:9:5-20
MERGED from [androidx.constraintlayout:constraintlayout:2.0.4] /Users/bclifton/.gradle/caches/transforms-2/files-2.1/da55807784bc4f113ebdc44543ca6a66/constraintlayout-2.0.4/AndroidManifest.xml:9:5-20
MERGED from [androidx.core:core:1.3.1] /Users/bclifton/.gradle/caches/transforms-2/files-2.1/8e671558511b6a302162925e3be46af4/core-1.3.1/AndroidManifest.xml:24:5-89
MERGED from [androidx.core:core:1.3.1] /Users/bclifton/.gradle/caches/transforms-2/files-2.1/8e671558511b6a302162925e3be46af4/core-1.3.1/AndroidManifest.xml:24:5-89
MERGED from [androidx.versionedparcelable:versionedparcelable:1.1.0] /Users/bclifton/.gradle/caches/transforms-2/files-2.1/7fe2cf06e736d07e7481bc68004754be/versionedparcelable-1.1.0/AndroidManifest.xml:24:5-25:19
MERGED from [androidx.versionedparcelable:versionedparcelable:1.1.0] /Users/bclifton/.gradle/caches/transforms-2/files-2.1/7fe2cf06e736d07e7481bc68004754be/versionedparcelable-1.1.0/AndroidManifest.xml:24:5-25:19
MERGED from [com.google.android.play:core:1.7.2] /Users/bclifton/.gradle/caches/transforms-2/files-2.1/1c0f27f7a76547521bbbfa51beead110/core-1.7.2/AndroidManifest.xml:10:3-17:17
MERGED from [com.google.android.play:core:1.7.2] /Users/bclifton/.gradle/caches/transforms-2/files-2.1/1c0f27f7a76547521bbbfa51beead110/core-1.7.2/AndroidManifest.xml:10:3-17:17
	android:appComponentFactory
		ADDED from [androidx.core:core:1.3.1] /Users/bclifton/.gradle/caches/transforms-2/files-2.1/8e671558511b6a302162925e3be46af4/core-1.3.1/AndroidManifest.xml:24:18-86
	android:supportsRtl
		ADDED from /Users/bclifton/Documents/GitHub/showcase/showcaseDroid/src/main/AndroidManifest.xml:6:13-39
	android:allowBackup
		ADDED from /Users/bclifton/Documents/GitHub/showcase/showcaseDroid/src/main/AndroidManifest.xml:5:13-40
	android:theme
		ADDED from /Users/bclifton/Documents/GitHub/showcase/showcaseDroid/src/main/AndroidManifest.xml:7:13-44
activity#com.adadapted.showcase.showcaseDroid.MainActivity
ADDED from /Users/bclifton/Documents/GitHub/showcase/showcaseDroid/src/main/AndroidManifest.xml:8:9-13:20
	android:name
		ADDED from /Users/bclifton/Documents/GitHub/showcase/showcaseDroid/src/main/AndroidManifest.xml:8:19-83
intent-filter#action:name:android.intent.action.MAIN+category:name:android.intent.category.LAUNCHER
ADDED from /Users/bclifton/Documents/GitHub/showcase/showcaseDroid/src/main/AndroidManifest.xml:9:13-12:29
action#android.intent.action.MAIN
ADDED from /Users/bclifton/Documents/GitHub/showcase/showcaseDroid/src/main/AndroidManifest.xml:10:17-68
	android:name
		ADDED from /Users/bclifton/Documents/GitHub/showcase/showcaseDroid/src/main/AndroidManifest.xml:10:25-66
category#android.intent.category.LAUNCHER
ADDED from /Users/bclifton/Documents/GitHub/showcase/showcaseDroid/src/main/AndroidManifest.xml:11:17-76
	android:name
		ADDED from /Users/bclifton/Documents/GitHub/showcase/showcaseDroid/src/main/AndroidManifest.xml:11:27-74
uses-sdk
INJECTED from /Users/bclifton/Documents/GitHub/showcase/showcaseDroid/src/main/AndroidManifest.xml reason: use-sdk injection requested
INJECTED from /Users/bclifton/Documents/GitHub/showcase/showcaseDroid/src/main/AndroidManifest.xml
INJECTED from /Users/bclifton/Documents/GitHub/showcase/showcaseDroid/src/main/AndroidManifest.xml
MERGED from [androidx.databinding:databinding-adapters:4.2.1] /Users/bclifton/.gradle/caches/transforms-2/files-2.1/21311faf19d12f309ac2659e32a3ce7d/databinding-adapters-4.2.1/AndroidManifest.xml:20:5-44
MERGED from [androidx.databinding:databinding-adapters:4.2.1] /Users/bclifton/.gradle/caches/transforms-2/files-2.1/21311faf19d12f309ac2659e32a3ce7d/databinding-adapters-4.2.1/AndroidManifest.xml:20:5-44
MERGED from [androidx.databinding:databinding-runtime:4.2.1] /Users/bclifton/.gradle/caches/transforms-2/files-2.1/61af93d91e3dc631a5c62e691c8f3362/databinding-runtime-4.2.1/AndroidManifest.xml:20:5-44
MERGED from [androidx.databinding:databinding-runtime:4.2.1] /Users/bclifton/.gradle/caches/transforms-2/files-2.1/61af93d91e3dc631a5c62e691c8f3362/databinding-runtime-4.2.1/AndroidManifest.xml:20:5-44
MERGED from [:shared] /Users/bclifton/Documents/GitHub/showcase/shared/build/intermediates/merged_manifest/debug/AndroidManifest.xml:5:5-7:41
MERGED from [:shared] /Users/bclifton/Documents/GitHub/showcase/shared/build/intermediates/merged_manifest/debug/AndroidManifest.xml:5:5-7:41
MERGED from [androidx.navigation:navigation-ui-ktx:2.3.3] /Users/bclifton/.gradle/caches/transforms-2/files-2.1/eab8b203c8408eef88a4c6e4f3bbfae7/navigation-ui-ktx-2.3.3/AndroidManifest.xml:20:5-22:41
MERGED from [androidx.navigation:navigation-ui-ktx:2.3.3] /Users/bclifton/.gradle/caches/transforms-2/files-2.1/eab8b203c8408eef88a4c6e4f3bbfae7/navigation-ui-ktx-2.3.3/AndroidManifest.xml:20:5-22:41
MERGED from [androidx.navigation:navigation-ui:2.3.3] /Users/bclifton/.gradle/caches/transforms-2/files-2.1/e0d17e851b635e3fb9363dccc53a1571/navigation-ui-2.3.3/AndroidManifest.xml:20:5-22:41
MERGED from [androidx.navigation:navigation-ui:2.3.3] /Users/bclifton/.gradle/caches/transforms-2/files-2.1/e0d17e851b635e3fb9363dccc53a1571/navigation-ui-2.3.3/AndroidManifest.xml:20:5-22:41
MERGED from [com.google.android.material:material:1.3.0] /Users/bclifton/.gradle/caches/transforms-2/files-2.1/c19913a41121602073e531fdc14d2173/material-1.3.0/AndroidManifest.xml:20:5-44
MERGED from [com.google.android.material:material:1.3.0] /Users/bclifton/.gradle/caches/transforms-2/files-2.1/c19913a41121602073e531fdc14d2173/material-1.3.0/AndroidManifest.xml:20:5-44
MERGED from [androidx.constraintlayout:constraintlayout:2.0.4] /Users/bclifton/.gradle/caches/transforms-2/files-2.1/da55807784bc4f113ebdc44543ca6a66/constraintlayout-2.0.4/AndroidManifest.xml:5:5-7:41
MERGED from [androidx.constraintlayout:constraintlayout:2.0.4] /Users/bclifton/.gradle/caches/transforms-2/files-2.1/da55807784bc4f113ebdc44543ca6a66/constraintlayout-2.0.4/AndroidManifest.xml:5:5-7:41
MERGED from [androidx.appcompat:appcompat:1.2.0] /Users/bclifton/.gradle/caches/transforms-2/files-2.1/4f352150ebb7896ba4833cb16ba7a6f6/appcompat-1.2.0/AndroidManifest.xml:20:5-22:41
MERGED from [androidx.appcompat:appcompat:1.2.0] /Users/bclifton/.gradle/caches/transforms-2/files-2.1/4f352150ebb7896ba4833cb16ba7a6f6/appcompat-1.2.0/AndroidManifest.xml:20:5-22:41
MERGED from [androidx.lifecycle:lifecycle-livedata-ktx:2.2.0] /Users/bclifton/.gradle/caches/transforms-2/files-2.1/ac44153580a3b97b032ede7c439a007e/lifecycle-livedata-ktx-2.2.0/AndroidManifest.xml:20:5-22:41
MERGED from [androidx.lifecycle:lifecycle-livedata-ktx:2.2.0] /Users/bclifton/.gradle/caches/transforms-2/files-2.1/ac44153580a3b97b032ede7c439a007e/lifecycle-livedata-ktx-2.2.0/AndroidManifest.xml:20:5-22:41
MERGED from [androidx.navigation:navigation-dynamic-features-fragment:2.3.3] /Users/bclifton/.gradle/caches/transforms-2/files-2.1/3b42d80bf0cf380e7d76cf05f330e1d7/navigation-dynamic-features-fragment-2.3.3/AndroidManifest.xml:20:5-22:41
MERGED from [androidx.navigation:navigation-dynamic-features-fragment:2.3.3] /Users/bclifton/.gradle/caches/transforms-2/files-2.1/3b42d80bf0cf380e7d76cf05f330e1d7/navigation-dynamic-features-fragment-2.3.3/AndroidManifest.xml:20:5-22:41
MERGED from [androidx.navigation:navigation-fragment-ktx:2.3.3] /Users/bclifton/.gradle/caches/transforms-2/files-2.1/13bdeeae5ab698871bfc76267c060b41/navigation-fragment-ktx-2.3.3/AndroidManifest.xml:20:5-22:41
MERGED from [androidx.navigation:navigation-fragment-ktx:2.3.3] /Users/bclifton/.gradle/caches/transforms-2/files-2.1/13bdeeae5ab698871bfc76267c060b41/navigation-fragment-ktx-2.3.3/AndroidManifest.xml:20:5-22:41
MERGED from [androidx.fragment:fragment-ktx:1.2.5] /Users/bclifton/.gradle/caches/transforms-2/files-2.1/dd93101153ffffb123823d9bfef32637/fragment-ktx-1.2.5/AndroidManifest.xml:20:5-22:41
MERGED from [androidx.fragment:fragment-ktx:1.2.5] /Users/bclifton/.gradle/caches/transforms-2/files-2.1/dd93101153ffffb123823d9bfef32637/fragment-ktx-1.2.5/AndroidManifest.xml:20:5-22:41
MERGED from [androidx.navigation:navigation-dynamic-features-runtime:2.3.3] /Users/bclifton/.gradle/caches/transforms-2/files-2.1/a0e73c125e805fc2bd88c54c6d263bd2/navigation-dynamic-features-runtime-2.3.3/AndroidManifest.xml:20:5-22:41
MERGED from [androidx.navigation:navigation-dynamic-features-runtime:2.3.3] /Users/bclifton/.gradle/caches/transforms-2/files-2.1/a0e73c125e805fc2bd88c54c6d263bd2/navigation-dynamic-features-runtime-2.3.3/AndroidManifest.xml:20:5-22:41
MERGED from [androidx.navigation:navigation-runtime-ktx:2.3.3] /Users/bclifton/.gradle/caches/transforms-2/files-2.1/08b09f2c8d8fba6aea46bfa944c594e2/navigation-runtime-ktx-2.3.3/AndroidManifest.xml:20:5-22:41
MERGED from [androidx.navigation:navigation-runtime-ktx:2.3.3] /Users/bclifton/.gradle/caches/transforms-2/files-2.1/08b09f2c8d8fba6aea46bfa944c594e2/navigation-runtime-ktx-2.3.3/AndroidManifest.xml:20:5-22:41
MERGED from [androidx.activity:activity-ktx:1.1.0] /Users/bclifton/.gradle/caches/transforms-2/files-2.1/049bf8c558277a31c616cbe432f5703e/activity-ktx-1.1.0/AndroidManifest.xml:20:5-22:41
MERGED from [androidx.activity:activity-ktx:1.1.0] /Users/bclifton/.gradle/caches/transforms-2/files-2.1/049bf8c558277a31c616cbe432f5703e/activity-ktx-1.1.0/AndroidManifest.xml:20:5-22:41
MERGED from [androidx.lifecycle:lifecycle-viewmodel-ktx:2.2.0] /Users/bclifton/.gradle/caches/transforms-2/files-2.1/9e57a712b8039ad672ec8da20c32ffe6/lifecycle-viewmodel-ktx-2.2.0/AndroidManifest.xml:20:5-22:41
MERGED from [androidx.lifecycle:lifecycle-viewmodel-ktx:2.2.0] /Users/bclifton/.gradle/caches/transforms-2/files-2.1/9e57a712b8039ad672ec8da20c32ffe6/lifecycle-viewmodel-ktx-2.2.0/AndroidManifest.xml:20:5-22:41
MERGED from [androidx.lifecycle:lifecycle-runtime-ktx:2.2.0] /Users/bclifton/.gradle/caches/transforms-2/files-2.1/73e7dc6703469f3a8565e10237f87c57/lifecycle-runtime-ktx-2.2.0/AndroidManifest.xml:20:5-22:41
MERGED from [androidx.lifecycle:lifecycle-runtime-ktx:2.2.0] /Users/bclifton/.gradle/caches/transforms-2/files-2.1/73e7dc6703469f3a8565e10237f87c57/lifecycle-runtime-ktx-2.2.0/AndroidManifest.xml:20:5-22:41
MERGED from [androidx.lifecycle:lifecycle-livedata-core-ktx:2.2.0] /Users/bclifton/.gradle/caches/transforms-2/files-2.1/7d72a236a83331ff20033b8bb91c97d2/lifecycle-livedata-core-ktx-2.2.0/AndroidManifest.xml:20:5-22:41
MERGED from [androidx.lifecycle:lifecycle-livedata-core-ktx:2.2.0] /Users/bclifton/.gradle/caches/transforms-2/files-2.1/7d72a236a83331ff20033b8bb91c97d2/lifecycle-livedata-core-ktx-2.2.0/AndroidManifest.xml:20:5-22:41
MERGED from [androidx.navigation:navigation-common-ktx:2.3.3] /Users/bclifton/.gradle/caches/transforms-2/files-2.1/9164c1b5dcffa555a9ce7ad566ed2356/navigation-common-ktx-2.3.3/AndroidManifest.xml:20:5-22:41
MERGED from [androidx.navigation:navigation-common-ktx:2.3.3] /Users/bclifton/.gradle/caches/transforms-2/files-2.1/9164c1b5dcffa555a9ce7ad566ed2356/navigation-common-ktx-2.3.3/AndroidManifest.xml:20:5-22:41
MERGED from [androidx.core:core-ktx:1.1.0] /Users/bclifton/.gradle/caches/transforms-2/files-2.1/fb843b5c66a3898432769951745a7aff/core-ktx-1.1.0/AndroidManifest.xml:5:5-7:41
MERGED from [androidx.core:core-ktx:1.1.0] /Users/bclifton/.gradle/caches/transforms-2/files-2.1/fb843b5c66a3898432769951745a7aff/core-ktx-1.1.0/AndroidManifest.xml:5:5-7:41
MERGED from [androidx.legacy:legacy-support-v4:1.0.0] /Users/bclifton/.gradle/caches/transforms-2/files-2.1/42c74b1ff97f11a7735fccb14b45b81f/legacy-support-v4-1.0.0/AndroidManifest.xml:20:5-44
MERGED from [androidx.legacy:legacy-support-v4:1.0.0] /Users/bclifton/.gradle/caches/transforms-2/files-2.1/42c74b1ff97f11a7735fccb14b45b81f/legacy-support-v4-1.0.0/AndroidManifest.xml:20:5-44
MERGED from [androidx.navigation:navigation-fragment:2.3.3] /Users/bclifton/.gradle/caches/transforms-2/files-2.1/734ba2c1e21593226e635ea819a6f669/navigation-fragment-2.3.3/AndroidManifest.xml:20:5-22:41
MERGED from [androidx.navigation:navigation-fragment:2.3.3] /Users/bclifton/.gradle/caches/transforms-2/files-2.1/734ba2c1e21593226e635ea819a6f669/navigation-fragment-2.3.3/AndroidManifest.xml:20:5-22:41
MERGED from [androidx.viewpager2:viewpager2:1.0.0] /Users/bclifton/.gradle/caches/transforms-2/files-2.1/735d1501aef76e117814f39ae447e35d/viewpager2-1.0.0/AndroidManifest.xml:20:5-22:41
MERGED from [androidx.viewpager2:viewpager2:1.0.0] /Users/bclifton/.gradle/caches/transforms-2/files-2.1/735d1501aef76e117814f39ae447e35d/viewpager2-1.0.0/AndroidManifest.xml:20:5-22:41
MERGED from [androidx.fragment:fragment:1.2.5] /Users/bclifton/.gradle/caches/transforms-2/files-2.1/3d50f53ef9b1c8eca4d739479c1e4736/fragment-1.2.5/AndroidManifest.xml:20:5-22:41
MERGED from [androidx.fragment:fragment:1.2.5] /Users/bclifton/.gradle/caches/transforms-2/files-2.1/3d50f53ef9b1c8eca4d739479c1e4736/fragment-1.2.5/AndroidManifest.xml:20:5-22:41
MERGED from [androidx.recyclerview:recyclerview:1.1.0] /Users/bclifton/.gradle/caches/transforms-2/files-2.1/0c564c8ac25c562da9447a32f41671f1/recyclerview-1.1.0/AndroidManifest.xml:20:5-22:41
MERGED from [androidx.recyclerview:recyclerview:1.1.0] /Users/bclifton/.gradle/caches/transforms-2/files-2.1/0c564c8ac25c562da9447a32f41671f1/recyclerview-1.1.0/AndroidManifest.xml:20:5-22:41
MERGED from [androidx.databinding:viewbinding:4.2.1] /Users/bclifton/.gradle/caches/transforms-2/files-2.1/fea3c853f994ff3486f57983e56b7dc8/viewbinding-4.2.1/AndroidManifest.xml:20:5-44
MERGED from [androidx.databinding:viewbinding:4.2.1] /Users/bclifton/.gradle/caches/transforms-2/files-2.1/fea3c853f994ff3486f57983e56b7dc8/viewbinding-4.2.1/AndroidManifest.xml:20:5-44
MERGED from [androidx.legacy:legacy-support-core-ui:1.0.0] /Users/bclifton/.gradle/caches/transforms-2/files-2.1/ae157a1690813e6fbdbf8a262a85d911/legacy-support-core-ui-1.0.0/AndroidManifest.xml:20:5-44
MERGED from [androidx.legacy:legacy-support-core-ui:1.0.0] /Users/bclifton/.gradle/caches/transforms-2/files-2.1/ae157a1690813e6fbdbf8a262a85d911/legacy-support-core-ui-1.0.0/AndroidManifest.xml:20:5-44
MERGED from [androidx.coordinatorlayout:coordinatorlayout:1.1.0] /Users/bclifton/.gradle/caches/transforms-2/files-2.1/216af7355159bc43e41d85ef854899e1/coordinatorlayout-1.1.0/AndroidManifest.xml:20:5-22:41
MERGED from [androidx.coordinatorlayout:coordinatorlayout:1.1.0] /Users/bclifton/.gradle/caches/transforms-2/files-2.1/216af7355159bc43e41d85ef854899e1/coordinatorlayout-1.1.0/AndroidManifest.xml:20:5-22:41
MERGED from [androidx.dynamicanimation:dynamicanimation:1.0.0] /Users/bclifton/.gradle/caches/transforms-2/files-2.1/3877608a4e5b74b2b73e7b3dcf733373/dynamicanimation-1.0.0/AndroidManifest.xml:20:5-44
MERGED from [androidx.dynamicanimation:dynamicanimation:1.0.0] /Users/bclifton/.gradle/caches/transforms-2/files-2.1/3877608a4e5b74b2b73e7b3dcf733373/dynamicanimation-1.0.0/AndroidManifest.xml:20:5-44
MERGED from [androidx.appcompat:appcompat-resources:1.2.0] /Users/bclifton/.gradle/caches/transforms-2/files-2.1/9ec1710595e71cc78df89ef32738a6b2/appcompat-resources-1.2.0/AndroidManifest.xml:20:5-22:41
MERGED from [androidx.appcompat:appcompat-resources:1.2.0] /Users/bclifton/.gradle/caches/transforms-2/files-2.1/9ec1710595e71cc78df89ef32738a6b2/appcompat-resources-1.2.0/AndroidManifest.xml:20:5-22:41
MERGED from [androidx.vectordrawable:vectordrawable-animated:1.1.0] /Users/bclifton/.gradle/caches/transforms-2/files-2.1/9345872765d32e03a6ff5317f27e18c5/vectordrawable-animated-1.1.0/AndroidManifest.xml:20:5-22:41
MERGED from [androidx.vectordrawable:vectordrawable-animated:1.1.0] /Users/bclifton/.gradle/caches/transforms-2/files-2.1/9345872765d32e03a6ff5317f27e18c5/vectordrawable-animated-1.1.0/AndroidManifest.xml:20:5-22:41
MERGED from [androidx.vectordrawable:vectordrawable:1.1.0] /Users/bclifton/.gradle/caches/transforms-2/files-2.1/c9d454c22800539d56ebff29df6ee441/vectordrawable-1.1.0/AndroidManifest.xml:20:5-22:41
MERGED from [androidx.vectordrawable:vectordrawable:1.1.0] /Users/bclifton/.gradle/caches/transforms-2/files-2.1/c9d454c22800539d56ebff29df6ee441/vectordrawable-1.1.0/AndroidManifest.xml:20:5-22:41
MERGED from [androidx.media:media:1.0.0] /Users/bclifton/.gradle/caches/transforms-2/files-2.1/3200c147f0a86d10372f3a59db866af8/media-1.0.0/AndroidManifest.xml:20:5-44
MERGED from [androidx.media:media:1.0.0] /Users/bclifton/.gradle/caches/transforms-2/files-2.1/3200c147f0a86d10372f3a59db866af8/media-1.0.0/AndroidManifest.xml:20:5-44
MERGED from [androidx.legacy:legacy-support-core-utils:1.0.0] /Users/bclifton/.gradle/caches/transforms-2/files-2.1/56bc4586677b7c064f705183c5f71f25/legacy-support-core-utils-1.0.0/AndroidManifest.xml:20:5-44
MERGED from [androidx.legacy:legacy-support-core-utils:1.0.0] /Users/bclifton/.gradle/caches/transforms-2/files-2.1/56bc4586677b7c064f705183c5f71f25/legacy-support-core-utils-1.0.0/AndroidManifest.xml:20:5-44
MERGED from [androidx.viewpager:viewpager:1.0.0] /Users/bclifton/.gradle/caches/transforms-2/files-2.1/c90b8f7a3f0f9b180886809a2de767c6/viewpager-1.0.0/AndroidManifest.xml:20:5-44
MERGED from [androidx.viewpager:viewpager:1.0.0] /Users/bclifton/.gradle/caches/transforms-2/files-2.1/c90b8f7a3f0f9b180886809a2de767c6/viewpager-1.0.0/AndroidManifest.xml:20:5-44
MERGED from [androidx.loader:loader:1.0.0] /Users/bclifton/.gradle/caches/transforms-2/files-2.1/080bd4d3c11bdb339bc1eeb7b193b71d/loader-1.0.0/AndroidManifest.xml:20:5-44
MERGED from [androidx.loader:loader:1.0.0] /Users/bclifton/.gradle/caches/transforms-2/files-2.1/080bd4d3c11bdb339bc1eeb7b193b71d/loader-1.0.0/AndroidManifest.xml:20:5-44
MERGED from [androidx.navigation:navigation-runtime:2.3.3] /Users/bclifton/.gradle/caches/transforms-2/files-2.1/30a8f1cdda1b53a41227523ea9c2541d/navigation-runtime-2.3.3/AndroidManifest.xml:20:5-22:41
MERGED from [androidx.navigation:navigation-runtime:2.3.3] /Users/bclifton/.gradle/caches/transforms-2/files-2.1/30a8f1cdda1b53a41227523ea9c2541d/navigation-runtime-2.3.3/AndroidManifest.xml:20:5-22:41
MERGED from [androidx.activity:activity:1.1.0] /Users/bclifton/.gradle/caches/transforms-2/files-2.1/6292595c5293c63eff4148f2410a40de/activity-1.1.0/AndroidManifest.xml:20:5-22:41
MERGED from [androidx.activity:activity:1.1.0] /Users/bclifton/.gradle/caches/transforms-2/files-2.1/6292595c5293c63eff4148f2410a40de/activity-1.1.0/AndroidManifest.xml:20:5-22:41
MERGED from [androidx.drawerlayout:drawerlayout:1.1.1] /Users/bclifton/.gradle/caches/transforms-2/files-2.1/ab64a95fecd4cc13168924ab2a2d6423/drawerlayout-1.1.1/AndroidManifest.xml:20:5-22:41
MERGED from [androidx.drawerlayout:drawerlayout:1.1.1] /Users/bclifton/.gradle/caches/transforms-2/files-2.1/ab64a95fecd4cc13168924ab2a2d6423/drawerlayout-1.1.1/AndroidManifest.xml:20:5-22:41
MERGED from [androidx.transition:transition:1.3.0] /Users/bclifton/.gradle/caches/transforms-2/files-2.1/24fe618556fb69fea03b5fdfc2f24754/transition-1.3.0/AndroidManifest.xml:20:5-22:41
MERGED from [androidx.transition:transition:1.3.0] /Users/bclifton/.gradle/caches/transforms-2/files-2.1/24fe618556fb69fea03b5fdfc2f24754/transition-1.3.0/AndroidManifest.xml:20:5-22:41
MERGED from [androidx.slidingpanelayout:slidingpanelayout:1.0.0] /Users/bclifton/.gradle/caches/transforms-2/files-2.1/397601f4e18190de8bd51ebad9445612/slidingpanelayout-1.0.0/AndroidManifest.xml:20:5-44
MERGED from [androidx.slidingpanelayout:slidingpanelayout:1.0.0] /Users/bclifton/.gradle/caches/transforms-2/files-2.1/397601f4e18190de8bd51ebad9445612/slidingpanelayout-1.0.0/AndroidManifest.xml:20:5-44
MERGED from [androidx.customview:customview:1.1.0] /Users/bclifton/.gradle/caches/transforms-2/files-2.1/ff512320a83314db5fe820f467a08c93/customview-1.1.0/AndroidManifest.xml:20:5-22:41
MERGED from [androidx.customview:customview:1.1.0] /Users/bclifton/.gradle/caches/transforms-2/files-2.1/ff512320a83314db5fe820f467a08c93/customview-1.1.0/AndroidManifest.xml:20:5-22:41
MERGED from [androidx.swiperefreshlayout:swiperefreshlayout:1.0.0] /Users/bclifton/.gradle/caches/transforms-2/files-2.1/42feb3c11a8c938a3915d90d7c56728d/swiperefreshlayout-1.0.0/AndroidManifest.xml:20:5-44
MERGED from [androidx.swiperefreshlayout:swiperefreshlayout:1.0.0] /Users/bclifton/.gradle/caches/transforms-2/files-2.1/42feb3c11a8c938a3915d90d7c56728d/swiperefreshlayout-1.0.0/AndroidManifest.xml:20:5-44
MERGED from [androidx.asynclayoutinflater:asynclayoutinflater:1.0.0] /Users/bclifton/.gradle/caches/transforms-2/files-2.1/6f6e458a954b59a007d63f9c2c61e677/asynclayoutinflater-1.0.0/AndroidManifest.xml:20:5-44
MERGED from [androidx.asynclayoutinflater:asynclayoutinflater:1.0.0] /Users/bclifton/.gradle/caches/transforms-2/files-2.1/6f6e458a954b59a007d63f9c2c61e677/asynclayoutinflater-1.0.0/AndroidManifest.xml:20:5-44
MERGED from [androidx.navigation:navigation-common:2.3.3] /Users/bclifton/.gradle/caches/transforms-2/files-2.1/0c9e0fc1c0c0aab51439cd8a4b334b31/navigation-common-2.3.3/AndroidManifest.xml:20:5-22:41
MERGED from [androidx.navigation:navigation-common:2.3.3] /Users/bclifton/.gradle/caches/transforms-2/files-2.1/0c9e0fc1c0c0aab51439cd8a4b334b31/navigation-common-2.3.3/AndroidManifest.xml:20:5-22:41
MERGED from [androidx.core:core:1.3.1] /Users/bclifton/.gradle/caches/transforms-2/files-2.1/8e671558511b6a302162925e3be46af4/core-1.3.1/AndroidManifest.xml:20:5-22:41
MERGED from [androidx.core:core:1.3.1] /Users/bclifton/.gradle/caches/transforms-2/files-2.1/8e671558511b6a302162925e3be46af4/core-1.3.1/AndroidManifest.xml:20:5-22:41
MERGED from [androidx.lifecycle:lifecycle-runtime:2.2.0] /Users/bclifton/.gradle/caches/transforms-2/files-2.1/159fc0d5165047d2f6a27a869274ef72/lifecycle-runtime-2.2.0/AndroidManifest.xml:20:5-22:41
MERGED from [androidx.lifecycle:lifecycle-runtime:2.2.0] /Users/bclifton/.gradle/caches/transforms-2/files-2.1/159fc0d5165047d2f6a27a869274ef72/lifecycle-runtime-2.2.0/AndroidManifest.xml:20:5-22:41
MERGED from [androidx.versionedparcelable:versionedparcelable:1.1.0] /Users/bclifton/.gradle/caches/transforms-2/files-2.1/7fe2cf06e736d07e7481bc68004754be/versionedparcelable-1.1.0/AndroidManifest.xml:20:5-22:41
MERGED from [androidx.versionedparcelable:versionedparcelable:1.1.0] /Users/bclifton/.gradle/caches/transforms-2/files-2.1/7fe2cf06e736d07e7481bc68004754be/versionedparcelable-1.1.0/AndroidManifest.xml:20:5-22:41
MERGED from [androidx.cardview:cardview:1.0.0] /Users/bclifton/.gradle/caches/transforms-2/files-2.1/5726911d383b8d67b4d57a0279cc1b79/cardview-1.0.0/AndroidManifest.xml:20:5-44
MERGED from [androidx.cardview:cardview:1.0.0] /Users/bclifton/.gradle/caches/transforms-2/files-2.1/5726911d383b8d67b4d57a0279cc1b79/cardview-1.0.0/AndroidManifest.xml:20:5-44
MERGED from [androidx.cursoradapter:cursoradapter:1.0.0] /Users/bclifton/.gradle/caches/transforms-2/files-2.1/70a5b50e1fdf86009f7ad30feff01b44/cursoradapter-1.0.0/AndroidManifest.xml:20:5-44
MERGED from [androidx.cursoradapter:cursoradapter:1.0.0] /Users/bclifton/.gradle/caches/transforms-2/files-2.1/70a5b50e1fdf86009f7ad30feff01b44/cursoradapter-1.0.0/AndroidManifest.xml:20:5-44
MERGED from [androidx.lifecycle:lifecycle-viewmodel-savedstate:2.2.0] /Users/bclifton/.gradle/caches/transforms-2/files-2.1/a3435474446b3195fe9bdd0af1c518d0/lifecycle-viewmodel-savedstate-2.2.0/AndroidManifest.xml:20:5-22:41
MERGED from [androidx.lifecycle:lifecycle-viewmodel-savedstate:2.2.0] /Users/bclifton/.gradle/caches/transforms-2/files-2.1/a3435474446b3195fe9bdd0af1c518d0/lifecycle-viewmodel-savedstate-2.2.0/AndroidManifest.xml:20:5-22:41
MERGED from [androidx.lifecycle:lifecycle-viewmodel:2.2.0] /Users/bclifton/.gradle/caches/transforms-2/files-2.1/68837826c9c363d3d9fb6106baaa9b67/lifecycle-viewmodel-2.2.0/AndroidManifest.xml:20:5-22:41
MERGED from [androidx.lifecycle:lifecycle-viewmodel:2.2.0] /Users/bclifton/.gradle/caches/transforms-2/files-2.1/68837826c9c363d3d9fb6106baaa9b67/lifecycle-viewmodel-2.2.0/AndroidManifest.xml:20:5-22:41
MERGED from [androidx.documentfile:documentfile:1.0.0] /Users/bclifton/.gradle/caches/transforms-2/files-2.1/e28f33ee7f33cfef67ffa8f4378ae5f9/documentfile-1.0.0/AndroidManifest.xml:20:5-44
MERGED from [androidx.documentfile:documentfile:1.0.0] /Users/bclifton/.gradle/caches/transforms-2/files-2.1/e28f33ee7f33cfef67ffa8f4378ae5f9/documentfile-1.0.0/AndroidManifest.xml:20:5-44
MERGED from [androidx.localbroadcastmanager:localbroadcastmanager:1.0.0] /Users/bclifton/.gradle/caches/transforms-2/files-2.1/d56c590668dfed54135cdf9740c9ce4a/localbroadcastmanager-1.0.0/AndroidManifest.xml:20:5-44
MERGED from [androidx.localbroadcastmanager:localbroadcastmanager:1.0.0] /Users/bclifton/.gradle/caches/transforms-2/files-2.1/d56c590668dfed54135cdf9740c9ce4a/localbroadcastmanager-1.0.0/AndroidManifest.xml:20:5-44
MERGED from [androidx.print:print:1.0.0] /Users/bclifton/.gradle/caches/transforms-2/files-2.1/ddce38c2be796698293f73a9a0bad20f/print-1.0.0/AndroidManifest.xml:20:5-44
MERGED from [androidx.print:print:1.0.0] /Users/bclifton/.gradle/caches/transforms-2/files-2.1/ddce38c2be796698293f73a9a0bad20f/print-1.0.0/AndroidManifest.xml:20:5-44
MERGED from [androidx.interpolator:interpolator:1.0.0] /Users/bclifton/.gradle/caches/transforms-2/files-2.1/361eba0bf6994b3b1c4870c4a829fce8/interpolator-1.0.0/AndroidManifest.xml:20:5-44
MERGED from [androidx.interpolator:interpolator:1.0.0] /Users/bclifton/.gradle/caches/transforms-2/files-2.1/361eba0bf6994b3b1c4870c4a829fce8/interpolator-1.0.0/AndroidManifest.xml:20:5-44
MERGED from [androidx.lifecycle:lifecycle-livedata:2.2.0] /Users/bclifton/.gradle/caches/transforms-2/files-2.1/7b442bbec916a8474af69a03431241a4/lifecycle-livedata-2.2.0/AndroidManifest.xml:20:5-22:41
MERGED from [androidx.lifecycle:lifecycle-livedata:2.2.0] /Users/bclifton/.gradle/caches/transforms-2/files-2.1/7b442bbec916a8474af69a03431241a4/lifecycle-livedata-2.2.0/AndroidManifest.xml:20:5-22:41
MERGED from [androidx.lifecycle:lifecycle-livedata-core:2.2.0] /Users/bclifton/.gradle/caches/transforms-2/files-2.1/0886fcc92e2d3dcc5f0118c261e01cf3/lifecycle-livedata-core-2.2.0/AndroidManifest.xml:20:5-22:41
MERGED from [androidx.lifecycle:lifecycle-livedata-core:2.2.0] /Users/bclifton/.gradle/caches/transforms-2/files-2.1/0886fcc92e2d3dcc5f0118c261e01cf3/lifecycle-livedata-core-2.2.0/AndroidManifest.xml:20:5-22:41
MERGED from [androidx.arch.core:core-runtime:2.1.0] /Users/bclifton/.gradle/caches/transforms-2/files-2.1/eed275ba049d04ee41740f65e30c1cb6/core-runtime-2.1.0/AndroidManifest.xml:20:5-22:41
MERGED from [androidx.arch.core:core-runtime:2.1.0] /Users/bclifton/.gradle/caches/transforms-2/files-2.1/eed275ba049d04ee41740f65e30c1cb6/core-runtime-2.1.0/AndroidManifest.xml:20:5-22:41
MERGED from [androidx.savedstate:savedstate:1.0.0] /Users/bclifton/.gradle/caches/transforms-2/files-2.1/2a1e8487f9d77dcff3f52ad1e35fe0b6/savedstate-1.0.0/AndroidManifest.xml:20:5-22:41
MERGED from [androidx.savedstate:savedstate:1.0.0] /Users/bclifton/.gradle/caches/transforms-2/files-2.1/2a1e8487f9d77dcff3f52ad1e35fe0b6/savedstate-1.0.0/AndroidManifest.xml:20:5-22:41
MERGED from [androidx.annotation:annotation-experimental:1.0.0] /Users/bclifton/.gradle/caches/transforms-2/files-2.1/0d90f1690dd3a53522cb7af4dec04317/annotation-experimental-1.0.0/AndroidManifest.xml:20:5-22:41
MERGED from [androidx.annotation:annotation-experimental:1.0.0] /Users/bclifton/.gradle/caches/transforms-2/files-2.1/0d90f1690dd3a53522cb7af4dec04317/annotation-experimental-1.0.0/AndroidManifest.xml:20:5-22:41
MERGED from [com.google.android.play:core:1.7.2] /Users/bclifton/.gradle/caches/transforms-2/files-2.1/1c0f27f7a76547521bbbfa51beead110/core-1.7.2/AndroidManifest.xml:4:3-70
MERGED from [com.google.android.play:core:1.7.2] /Users/bclifton/.gradle/caches/transforms-2/files-2.1/1c0f27f7a76547521bbbfa51beead110/core-1.7.2/AndroidManifest.xml:4:3-70
INJECTED from /Users/bclifton/Documents/GitHub/showcase/showcaseDroid/src/main/AndroidManifest.xml
INJECTED from /Users/bclifton/Documents/GitHub/showcase/showcaseDroid/src/main/AndroidManifest.xml
	android:targetSdkVersion
		INJECTED from /Users/bclifton/Documents/GitHub/showcase/showcaseDroid/src/main/AndroidManifest.xml
		ADDED from /Users/bclifton/Documents/GitHub/showcase/showcaseDroid/src/main/AndroidManifest.xml
		INJECTED from /Users/bclifton/Documents/GitHub/showcase/showcaseDroid/src/main/AndroidManifest.xml
	android:minSdkVersion
		INJECTED from /Users/bclifton/Documents/GitHub/showcase/showcaseDroid/src/main/AndroidManifest.xml
		ADDED from /Users/bclifton/Documents/GitHub/showcase/showcaseDroid/src/main/AndroidManifest.xml
		INJECTED from /Users/bclifton/Documents/GitHub/showcase/showcaseDroid/src/main/AndroidManifest.xml
uses-permission#android.permission.FOREGROUND_SERVICE
ADDED from [com.google.android.play:core:1.7.2] /Users/bclifton/.gradle/caches/transforms-2/files-2.1/1c0f27f7a76547521bbbfa51beead110/core-1.7.2/AndroidManifest.xml:8:3-74
	android:name
		ADDED from [com.google.android.play:core:1.7.2] /Users/bclifton/.gradle/caches/transforms-2/files-2.1/1c0f27f7a76547521bbbfa51beead110/core-1.7.2/AndroidManifest.xml:8:20-72
activity#com.google.android.play.core.missingsplits.PlayCoreMissingSplitsActivity
ADDED from [com.google.android.play:core:1.7.2] /Users/bclifton/.gradle/caches/transforms-2/files-2.1/1c0f27f7a76547521bbbfa51beead110/core-1.7.2/AndroidManifest.xml:12:5-271
	android:process
		ADDED from [com.google.android.play:core:1.7.2] /Users/bclifton/.gradle/caches/transforms-2/files-2.1/1c0f27f7a76547521bbbfa51beead110/core-1.7.2/AndroidManifest.xml:12:152-203
	android:enabled
		ADDED from [com.google.android.play:core:1.7.2] /Users/bclifton/.gradle/caches/transforms-2/files-2.1/1c0f27f7a76547521bbbfa51beead110/core-1.7.2/AndroidManifest.xml:12:103-126
	android:stateNotNeeded
		ADDED from [com.google.android.play:core:1.7.2] /Users/bclifton/.gradle/caches/transforms-2/files-2.1/1c0f27f7a76547521bbbfa51beead110/core-1.7.2/AndroidManifest.xml:12:240-269
	android:launchMode
		ADDED from [com.google.android.play:core:1.7.2] /Users/bclifton/.gradle/caches/transforms-2/files-2.1/1c0f27f7a76547521bbbfa51beead110/core-1.7.2/AndroidManifest.xml:12:204-239
	android:exported
		ADDED from [com.google.android.play:core:1.7.2] /Users/bclifton/.gradle/caches/transforms-2/files-2.1/1c0f27f7a76547521bbbfa51beead110/core-1.7.2/AndroidManifest.xml:12:127-151
	android:name
		ADDED from [com.google.android.play:core:1.7.2] /Users/bclifton/.gradle/caches/transforms-2/files-2.1/1c0f27f7a76547521bbbfa51beead110/core-1.7.2/AndroidManifest.xml:12:15-102
activity#com.google.android.play.core.common.PlayCoreDialogWrapperActivity
ADDED from [com.google.android.play:core:1.7.2] /Users/bclifton/.gradle/caches/transforms-2/files-2.1/1c0f27f7a76547521bbbfa51beead110/core-1.7.2/AndroidManifest.xml:13:5-226
	android:enabled
		ADDED from [com.google.android.play:core:1.7.2] /Users/bclifton/.gradle/caches/transforms-2/files-2.1/1c0f27f7a76547521bbbfa51beead110/core-1.7.2/AndroidManifest.xml:13:96-119
	android:stateNotNeeded
		ADDED from [com.google.android.play:core:1.7.2] /Users/bclifton/.gradle/caches/transforms-2/files-2.1/1c0f27f7a76547521bbbfa51beead110/core-1.7.2/AndroidManifest.xml:13:145-174
	android:exported
		ADDED from [com.google.android.play:core:1.7.2] /Users/bclifton/.gradle/caches/transforms-2/files-2.1/1c0f27f7a76547521bbbfa51beead110/core-1.7.2/AndroidManifest.xml:13:120-144
	android:theme
		ADDED from [com.google.android.play:core:1.7.2] /Users/bclifton/.gradle/caches/transforms-2/files-2.1/1c0f27f7a76547521bbbfa51beead110/core-1.7.2/AndroidManifest.xml:13:175-224
	android:name
		ADDED from [com.google.android.play:core:1.7.2] /Users/bclifton/.gradle/caches/transforms-2/files-2.1/1c0f27f7a76547521bbbfa51beead110/core-1.7.2/AndroidManifest.xml:13:15-95
service#com.google.android.play.core.assetpacks.AssetPackExtractionService
ADDED from [com.google.android.play:core:1.7.2] /Users/bclifton/.gradle/caches/transforms-2/files-2.1/1c0f27f7a76547521bbbfa51beead110/core-1.7.2/AndroidManifest.xml:16:5-145
	android:enabled
		ADDED from [com.google.android.play:core:1.7.2] /Users/bclifton/.gradle/caches/transforms-2/files-2.1/1c0f27f7a76547521bbbfa51beead110/core-1.7.2/AndroidManifest.xml:16:96-119
	android:exported
		ADDED from [com.google.android.play:core:1.7.2] /Users/bclifton/.gradle/caches/transforms-2/files-2.1/1c0f27f7a76547521bbbfa51beead110/core-1.7.2/AndroidManifest.xml:16:120-143
	android:name
		ADDED from [com.google.android.play:core:1.7.2] /Users/bclifton/.gradle/caches/transforms-2/files-2.1/1c0f27f7a76547521bbbfa51beead110/core-1.7.2/AndroidManifest.xml:16:14-95
